[
    {
	"title": "Sudamala Suites & Villas Senggigi",
	"imagePath": "d94e6ebf-d9e2-4857-ac4b-81e0a1baed34",
	"description": "Sudamala Suites & Villas Senggigi\nAddress: Jalan Raya, Senggigi, Batu Layar, Kabupaten Lombok Barat, Nusa Tenggara Bar. 83355",
	"iframeLink": "https://tickets.jelajahin.id/user/auth/R006080M1I?product_id=34105"
    }
    , {
	"title": "Guesthouse Mataram Lombok",
	"imagePath": "95682c19-65d3-429b-9584-2a1042906d0f",
	"description": "Homestay or Guesthouse Lombok",
	"iframeLink": "https://tickets.jelajahin.id/user/auth/R006080M1I?product_id=34110"
    }
    , {
	"id": 34114,
	"title": "Coconut Boutique Resort Lombok",
	"imagePath": "af2e4eda-663b-48bb-a799-667179f44ade",
	"description": "Coconut Boutique Resort Lombok",
	"iframeLink": "https://tickets.jelajahin.id/user/auth/R006080M1I?product_id=34114"
    }

]
