[
    {
	"id": 33993,
	"title": "Ticket Hospitality Class 3 Days MotoGP Mandalika 18 - 20 March 2022",
	"imagePath": "31fd361d-6ee7-4ad7-9a5a-7fcca1285eab",
	"description": "Ticket Hospitality Class 3 Days MotoGP Mandalika Premiere Class 18 - 20 March 2022",
	"iframeLink": "https://tickets.jelajahin.id/user/auth/R006080M1I?product_id=33993"
    }
]
