[
  {
    "id": 33380,
    "title": "One Day Berastagi and Taman Simalem Resort Tour",
    "imagePath": "546ae1e6-5cf7-401e-8b89-a9a97c006fb5",
    "description": "06.00 : Transport and Driver stand by at the hotel or agreed meeting point.\n07.00 : Departed for Taman Simalem Resort via Berastagi using transport according to the number of participants\n09.30 : Arrive in Berastagi, stop at Lumbini Natural Park. A replica of the Shwedagon Pagoda in Myanmar for photo stop purposes.\n11.30 : Arrive at Taman Simalem Resort. Free program to enjoy the beauty of Simalem Park and the beauty of Lake Toba from the best angle.\n12.30 : Lunch at the Taman Simalem Resort restaurant. After lunch, you still have the opportunity to be at Taman Simalem Resort until it's time to go home.\n14.00 : Leaving Taman Simalem for Medan\n15.30 : Stop at Berastagi Fruit Market. You can shop for fresh fruit and typical Berastagi souvenirs or ride a horse and ride a sado if you are interested at your own expense.\n16.00 : Leaving Berastagi City.\n18.30 : Arrive in Medan. End of tour.",
    "iframeLink": "https://tickets.jelajahin.id/user/auth/R006080M1I?product_id=33380",
    "category": "danautoba",
    "rank": 1
  },
  {
    "id": 33403,
    "title": "Berastagi and Maimoon Palace Day Tour",
    "imagePath": "126d082a-6849-46c1-a677-712bd0f9021f",
    "description": "07.30 : Transport and Driver/Tour Guide stand by at the hotel or agreed meeting point.\n08.30 : The group left the location for Maimun Palace using transportation according to the number of participants.\n09.00 : Arrive at Maimun Palace. The Palace of the Sultan of Deli which was built by Sultan Makmun Al-Rashid in 1888 which used to be the center of the Deli Malay Kingdom. You can rent traditional clothes to pick up pictures (at own expense). \n10.00 : Leaving the city of Medan to Berastagi (65 km). \n12.30 : Arrive in Berastagi, stop at Lumbini Natural Park. A replica of the Shwedagon Pagoda in Myanmar for photo stop needs. Lunch at a local restaurant followed by Zuhur prayer at the mushalla for those who run it. After lunch, you will then visit the Fruit Market in the heart of Berastagi where you can shopping for fresh fruit from local farmers in Berastagi. You can also ride a horse or ride a sado in around the Fruit Market at his own expense. If the road situation permits, you may be taken to Gundaling Hill not too far in town Berastagi. From Gundaling Hill you will be able to see two active mountains, namely Mount Sinabung and Gunung Sibayak. On weekends, those of you who take a small car up to a Hiace minibus can visit the Farm House (milking) and drinking fresh milk like the one in Lembang Bandung. Another place that is still possible to visit is the Hot Spring (sulfur) at the foot of Mount Sibayak which is crowded with residents of the city of Medan on weekends. The hot shower program does not enter this program, in addition to a very limited time, site entrance fees and hot shower fees are not included in the price of this package. 16.00 : Leaving Berastagi City for Medan. 18.30 : Arrive in Medan. End of service",
    "iframeLink": "https://tickets.jelajahin.id/user/auth/R006080M1I?product_id=33403",
    "category": "danautoba",
    "rank": 2
  },
  {
    "id": 33402,
    "title": "Medan Full Day City Tour",
    "imagePath": "d02b50cf-b0ea-4260-acfd-bad33b27ac6b",
    "description": "07.30 : Transport and Driver/Tour Guide stand by at the hotel or agreed meeting point.\n08.30 : Left for Maimun Palace using transportation according to the number of participants.\n09.00 - 07.30 : Arrive at Maimun Palace. The Palace of the Sultan of Deli, which was built by Sultan Makmun Al-Rashid in 1888, was the center of the Deli Malay Kingdom. You can rent traditional clothes to take pictures (at your own expense). Visit the Al-Mashun Grand Mosque. For Muslim tourists who intend to participate in prayers, ask the tour guide/driver to adjust the time of visit. Lunch at a local restaurant. Visiting Passion Fruit Noerlen (producer of high quality passion fruit souvenirs from Medan). Visit Graha Maria Anna Velangkanni. Visit the Jegez Gallery gift shop. Visiting Tjong Afie's house (entrance fee not included) skip if not interested. Shopping at the Old Fish Market Hunt for souvenirs at Medan Market Center including Teri Medan. Visiting Rahmad Gallery (entrance fee not included) *Due to limited time until 18.00 WIB, you can choose your preferred destination. 17.30 : Back to the hotel. 18.00 : Arrive at the hotel. End of service",
    "iframeLink": "https://tickets.jelajahin.id/user/auth/R006080M1I?product_id=33402",
    "category": "danautoba",
    "rank": 3
  },
  {
    "id": 33379,
    "title": "One Day Lake Toba and Samosir Island Tour",
    "imagePath": "2ded06ac-8777-4a5c-a801-f86ce5a01895",
    "description": "Tour Itinerary\n07.00 : Transport and Guide stand by at the hotel or agreed meeting point\n08.00 : Departs for Lake Toba via Pematang Siantar by using the appropriate transport with the number of participants via toll roads.\n10.00 : Arrive at Pematang Siantar. The toilet stops at the Patent Shop where you can shop for Siantar snacks in the form of tingting, tangtang, tengteng, and others if interested.\n10.30 : Leaving Pematang Siantar to Parapat.\n11.30 : Arrived in Parapat. Lunch at the restaurant.\n12.00 : Go to Samosir Island by general motor boat accompanied by Driver.\n12.45 : Arrive in Tomok, visit the Tomb of King Sidabutar, and continue with souvenir shopping.\n16.00 : Leave Samosir Island for Parapat to return to Medan.\n16.45 : Leaving Parapat.\n18.00 : Arrive at Pematang Siantar. Dinner at a local restaurant.\n19.00 : Leaving Pematang Siantar to Medan.\n21.00 : Arrive in Medan. End of tour.",
    "iframeLink": "https://tickets.jelajahin.id/user/auth/R006080M1I?product_id=33379",
    "category": "danautoba",
    "rank": 4
  }
]
